…
The book

In 1955, the count boundaries changed.

# This person went out for 8 hours in 1921 and saw 9 different species, including a grey jay!
hamilton_cbc %>%
  filter(year == 1921,
         !is.na(how_many_counted)) %>%
  select(species, how_many_counted) %>% View()

# This was the only grey jay ever seen in the Hamilton CBC... Maybe it was a mistake??
hamilton_cbc %>% filter(species == "Gray Jay", !is.na(how_many_counted))

## # A tibble: 94 x 6
##     year species species_latin how_many_counted total_hours
##    <int> <chr>   <chr>                    <dbl>       <dbl>
##  1  1921 Gray J~ Perisoreus c~                1           8
##  2  1922 Gray J~ Perisoreus c~                0          NA
##  3  1924 Gray J~ Perisoreus c~                0          NA
##  4  1925 Gray J~ Perisoreus c~                0          NA
##  5  1926 Gray J~ Perisoreus c~                0          NA
##  6  1928 Gray J~ Perisoreus c~                0          NA
##  7  1930 Gray J~ Perisoreus c~                0          NA
##  8  1931 Gray J~ Perisoreus c~                0          NA
##  9  1932 Gray J~ Perisoreus c~                0          NA
## 10  1933 Gray J~ Perisoreus c~                0          NA
## # ... with 84 more rows, and 1 more variable:
## #   how_many_counted_by_hour <dbl>
…
