…
It turns out that how_many_counted also has a “cw” value, which means the bird was not seen on count day itself, but was seen on a day close to the count. I am going to set these bird counts to be NA, as they don’t have a specified value.

hamilton_cbc <- hamilton_cbc %>%
  mutate(how_many_counted = ifelse(how_many_counted == "cw", NA, how_many_counted),
         how_many_counted = as.integer(how_many_counted))

In the species variable, there are some rows that are identified only to the genus level (and not to the species level). I will exclude these records, as I believe EBird excludes them too.

hamilton_cbc %>%
filter(str_detect(species, "sp\\.")) %>%
distinct(species)

## # A tibble: 25 x 1
##    species        
##    <chr>          
##  1 scoter sp.     
##  2 duck sp.       
##  3 loon sp.       
##  4 Accipiter sp.  
##  5 hawk sp.       
##  6 eagle sp.      
##  7 jaeger sp.     
##  8 gull sp.       
##  9 screech-owl sp.
## 10 owl sp.        
## # ... with 15 more rows
…
